TSA/TP VHDL/LFSR-TSA-INIT/sim/codeur_tb.vcd
$date
  Fri Mar 13 17:41:49 2015
$end
$version
  GHDL v0
$end
$timescale
  1 fs
$end
$var reg 1 ! w_clk $end
$var reg 1 " w_rst $end
$var reg 1 # w_ce $end
$var reg 1 $ w_input $end
$var reg 3 % w_conf[2:0] $end
$var reg 1 & w_out $end
$var integer 32 ' cnt $end
$scope module dut $end
$var reg 1 ( i_clk $end
$var reg 1 ) i_rst $end
$var reg 1 * i_ce $end
$var reg 1 + i_input $end
$var reg 3 , i_conf[2:0] $end
$var reg 1 - o_output $end
$var reg 1 . w_feedback_ctrl $end
$scope module lsfr_1 $end
$var reg 1 / i_clk $end
$var reg 1 0 i_rst $end
$var reg 1 1 i_ce $end
$var reg 1 2 i_input $end
$var reg 1 3 i_feedback_ctrl $end
$var reg 3 4 i_conf[2:0] $end
$var reg 1 5 o_output $end
$var reg 3 6 w_in[2:0] $end
$var reg 3 7 w_out[2:0] $end
$scope module chain(0) $end
$scope module cell $end
$var reg 1 8 i_clk $end
$var reg 1 9 i_rst $end
$var reg 1 : i_ce $end
$var reg 1 ; i_input $end
$var reg 1 < i_feedback $end
$var reg 1 = i_conf $end
$var reg 1 > o_output $end
$var reg 1 ? r_cell $end
$var reg 1 @ w_xor $end
$upscope $end
$upscope $end
$scope module chain(1) $end
$scope module cell $end
$var reg 1 A i_clk $end
$var reg 1 B i_rst $end
$var reg 1 C i_ce $end
$var reg 1 D i_input $end
$var reg 1 E i_feedback $end
$var reg 1 F i_conf $end
$var reg 1 G o_output $end
$var reg 1 H r_cell $end
$var reg 1 I w_xor $end
$upscope $end
$upscope $end
$scope module chain(2) $end
$scope module cell $end
$var reg 1 J i_clk $end
$var reg 1 K i_rst $end
$var reg 1 L i_ce $end
$var reg 1 M i_input $end
$var reg 1 N i_feedback $end
$var reg 1 O i_conf $end
$var reg 1 P o_output $end
$var reg 1 Q r_cell $end
$var reg 1 R w_xor $end
$upscope $end
$upscope $end
$scope module chain2(1) $end
$upscope $end
$scope module chain2(2) $end
$upscope $end
$upscope $end
$scope module compteur $end
$var reg 1 S i_clk $end
$var reg 1 T i_rst $end
$var reg 1 U i_ce $end
$var reg 1 V o_output $end
$var reg 8 W cpt[7:0] $end
$upscope $end
$upscope $end
$enddefinitions $end
#0
0!
1"
1#
0$
b100 %
0&
b0 '
0(
1)
1*
0+
b100 ,
0-
1.
0/
10
11
02
13
b100 4
05
b000 6
b000 7
08
19
1:
0;
0<
0=
0>
0?
0@
0A
1B
1C
0D
0E
0F
0G
0H
0I
0J
1K
1L
0M
0N
1O
0P
0Q
0R
0S
1T
1U
1V
b00000000 W
#100000000
1!
1(
1/
18
1A
1J
1S
#200000000
0!
0(
0/
08
0A
0J
0S
#300000000
1!
1(
1/
18
1A
1J
1S
#340000000
0"
0)
00
09
0B
0K
0T
#400000000
0!
0(
0/
08
0A
0J
0S
#500000000
1!
1$
1&
b1 '
1(
1+
1-
1/
12
15
b001 6
18
1;
1<
1@
1A
1E
1J
1N
1Q
1R
1S
b00000001 W
#600000000
0!
0(
0/
08
0A
0J
0S
#700000000
1!
0$
0&
b10 '
1(
0+
0-
1/
02
05
b011 6
b101 7
18
1;
1<
1>
1@
1A
1D
1E
1I
1J
1N
1P
1Q
1R
1S
b00000010 W
#800000000
0!
0(
0/
08
0A
0J
0S
#900000000
1!
b11 '
1(
1/
b111 6
b111 7
18
1A
1G
1J
1M
0R
1S
b00000011 W
#1000000000
0!
0(
0/
08
0A
0J
0S
#1100000000
1!
1$
1&
b100 '
1(
1+
1-
1/
12
15
b111 6
b011 7
18
1;
1<
1@
1A
1E
1J
1N
0P
1Q
0R
1S
b00000100 W
#1200000000
0!
0(
0/
08
0A
0J
0S
#1300000000
1!
0$
0&
b101 '
1(
0+
0-
0.
1/
02
03
05
b110 6
18
0;
0<
0@
1A
0E
1J
0N
0Q
1R
1S
0V
b00000101 W
#1400000000
0!
0(
0/
08
0A
0J
0S
#1500000000
1!
1&
b110 '
1(
1-
1/
15
b100 6
b110 7
18
0>
1A
0D
0I
1J
1P
1S
b00000110 W
#1600000000
0!
0(
0/
08
0A
0J
0S
#1700000000
1!
b111 '
1(
1/
b000 6
b100 7
18
1A
0G
1J
0M
0R
1S
b00000111 W
#1800000000
0!
0(
0/
08
0A
0J
0S
#1900000000
1!
0&
b1000 '
1(
0-
1/
05
b000 7
18
1A
1J
0P
1S
b00001000 W
#2000000000
0!
0(
0/
08
0A
0J
0S
#2100000000
1!
b1001 '
1(
1/
18
1A
1J
1S
b00001001 W
#2200000000
0!
0(
0/
08
0A
0J
0S
#2300000000
1!
b1010 '
1(
1/
18
1A
1J
1S
b00001010 W
#2400000000
0!
0(
0/
08
0A
0J
0S
#2500000000
1!
b1011 '
1(
1/
18
1A
1J
1S
b00001011 W
#2600000000
0!
0(
0/
08
0A
0J
0S
#2700000000
1!
b1100 '
1(
1/
18
1A
1J
1S
b00001100 W
#2800000000
0!
0(
0/
08
0A
0J
0S
#2900000000
1!
b1101 '
1(
1/
18
1A
1J
1S
b00001101 W
#3000000000
0!
0(
0/
08
0A
0J
0S
#3100000000
1!
b1110 '
1(
1/
18
1A
1J
1S
b00001110 W
#3200000000
0!
0(
0/
08
0A
0J
0S
#3300000000
1!
b1111 '
1(
1/
18
1A
1J
1S
b00001111 W
#3400000000
0!
0(
0/
08
0A
0J
0S
#3500000000
1!
b10000 '
1(
1/
18
1A
1J
1S
b00010000 W
#3600000000
0!
0(
0/
08
0A
0J
0S
#3700000000
1!
b10001 '
1(
1/
18
1A
1J
1S
b00010001 W
#3800000000
0!
0(
0/
08
0A
0J
0S
#3900000000
1!
b10010 '
1(
1/
18
1A
1J
1S
b00010010 W
#4000000000
0!
0(
0/
08
0A
0J
0S
#4100000000
1!
b10011 '
1(
1/
18
1A
1J
1S
b00010011 W
#4200000000
0!
0(
0/
08
0A
0J
0S
#4300000000
1!
b10100 '
1(
1/
18
1A
1J
1S
b00010100 W
#4400000000
0!
0(
0/
08
0A
0J
0S
#4500000000
1!
b10101 '
1(
1/
18
1A
1J
1S
b00010101 W
#4600000000
0!
0(
0/
08
0A
0J
0S
#4700000000
1!
b10110 '
1(
1/
18
1A
1J
1S
b00010110 W
#4800000000
0!
0(
0/
08
0A
0J
0S
#4900000000
1!
b10111 '
1(
1/
18
1A
1J
1S
b00010111 W
