TSA/TP VHDL/LFSR-TSA-INIT/sim/lsfr_cell_tb.vcd
$date
  Fri Mar 13 17:32:30 2015
$end
$version
  GHDL v0
$end
$timescale
  1 fs
$end
$var reg 1 ! w_clk $end
$var reg 1 " w_rst $end
$var reg 1 # w_s $end
$var reg 1 $ w_input $end
$var reg 1 % w_conf $end
$var reg 1 & w_feed $end
$var reg 16 ' r_conf[15:0] $end
$var reg 16 ( r_feed[15:0] $end
$var reg 16 ) r_input[15:0] $end
$var reg 1 * w_ce $end
$var integer 32 + w_cnt $end
$scope module dut $end
$var reg 1 , i_clk $end
$var reg 1 - i_rst $end
$var reg 1 . i_ce $end
$var reg 1 / i_input $end
$var reg 1 0 i_feedback $end
$var reg 1 1 i_conf $end
$var reg 1 2 o_output $end
$var reg 1 3 r_cell $end
$var reg 1 4 w_xor $end
$upscope $end
$enddefinitions $end
#0
0!
1"
0#
1$
0%
0&
b0011001100000000 '
b0000111100000000 (
b1010101010101010 )
0*
b0 +
0,
1-
0.
1/
00
01
02
03
14
#100000000
1!
1,
#200000000
0!
0,
#300000000
1!
0"
0$
b0110011000000000 '
b0001111000000000 (
b0101010101010100 )
1*
b1 +
1,
0-
1.
0/
04
#400000000
0!
0,
#500000000
1!
1$
1%
b1100110000000000 '
b0011110000000000 (
b1010101010101000 )
b10 +
1,
1/
11
14
#600000000
0!
0,
#700000000
1!
1#
0$
b1001100000000000 '
b0111100000000000 (
b0101010101010000 )
b11 +
1,
0/
12
04
#800000000
0!
0,
#900000000
1!
0#
1$
0%
1&
b0011000000000000 '
b1111000000000000 (
b1010101010100000 )
b100 +
1,
1/
10
01
02
14
#1000000000
0!
0,
#1100000000
1!
1#
0$
b0110000000000000 '
b1110000000000000 (
b0101010101000000 )
b101 +
1,
0/
12
04
#1200000000
0!
0,
#1300000000
1!
0#
1$
1%
b1100000000000000 '
b1100000000000000 (
b1010101010000000 )
b110 +
1,
1/
11
02
13
04
#1400000000
0!
0,
#1500000000
1!
0$
b1000000000000000 '
b1000000000000000 (
b0101010100000000 )
b111 +
1,
0/
14
#1600000000
0!
0,
#1700000000
1!
1#
1$
0%
0&
b0000000000000000 '
b0000000000000000 (
b1010101000000000 )
b1000 +
1,
1/
00
01
12
03
14
#1800000000
0!
0,
#1900000000
1!
0$
b0101010000000000 )
b1001 +
1,
0/
04
#2000000000
0!
0,
#2100000000
1!
0#
1$
b1010100000000000 )
b1010 +
1,
1/
02
14
#2200000000
0!
0,
#2300000000
1!
1#
0$
b0101000000000000 )
b1011 +
1,
0/
12
04
#2400000000
0!
0,
#2500000000
1!
0#
1$
b1010000000000000 )
b1100 +
1,
1/
02
14
#2600000000
0!
0,
#2700000000
1!
1#
0$
b0100000000000000 )
b1101 +
1,
0/
12
04
#2800000000
0!
0,
#2900000000
1!
0#
1$
b1000000000000000 )
b1110 +
1,
1/
02
14
#3000000000
0!
0,
#3100000000
1!
1#
0$
b0000000000000000 )
b1111 +
1,
0/
12
04
#3200000000
0!
0,
#3300000000
1!
0#
b10000 +
1,
02
#3400000000
0!
0,
#3500000000
1!
b10001 +
1,
#3600000000
0!
0,
#3700000000
1!
b10010 +
1,
#3800000000
0!
0,
#3900000000
1!
b10011 +
1,
#4000000000
0!
0,
#4100000000
1!
b10100 +
1,
#4200000000
0!
0,
#4300000000
1!
b10101 +
1,
#4400000000
0!
0,
#4500000000
1!
b10110 +
1,
#4600000000
0!
0,
#4700000000
1!
b10111 +
1,
#4800000000
0!
0,
#4900000000
1!
b11000 +
1,
